[
    {
      "details": [
        {
          "_id": "5de47b26c583935b28e96e71",
          "tarjeta": {
            "_id": "5ddeac413e3ae2457ec282a9",
            "bin": "5536-50",
            "codigo": "SB",
            "descripcion": "MC BLACK",
            "value": "SB-MC BLACK",
            "formato": "ESTANDAR",
            "imagen": "https://bbva.pe/content/dam/public-web/peru/local-tools/images/productos/tarjetas/mastercard-black.png",
            "rango": "50",
            "__v": 0
          },
          "cantidad": 200,
          "solicitud": "5de47b25c583935b28e96e70",
          "__v": 0
        },
        {
          "_id": "5de47b26c583935b28e96e72",
          "tarjeta": {
            "_id": "5ddeac413e3ae2457ec282aa",
            "bin": "4147-91",
            "codigo": "SS",
            "descripcion": "VISA SIGNATURE",
            "value": "SS-VISA SIGNATURE",
            "formato": "ESTANDAR",
            "imagen": "https://bbva.pe/content/dam/public-web/peru/local-tools/images/productos/tarjetas/visa-signature.png",
            "rango": "50",
            "__v": 0
          },
          "cantidad": 200,
          "solicitud": "5de47b25c583935b28e96e70",
          "__v": 0
        }
      ],
      "_id": "5de47b25c583935b28e96e70",
      "estado": {
        "_id": "5de01fd9332c106d58ecd25e",
        "codigo": "ENTREGADO",
        "nombre": "Entregado",
        "valor": "Entregado",
        "lista": "5de01fc9332c106d58ecd255",
        "__v": 0
      },
      "oficina": null,
      "territorio": null,
      "usuarioAsignado": {
        "_id": "5dd5cfcb6456d81a40b47d6b",
        "userName": "asanchez",
        "password": "$2b$12$APysEKT3MEB2l4V/O0facOR/VZJZ2UX/67W/Y6wy2q.iqmb2B4wES",
        "nombreCompleto": "Arturo Sanchez",
        "oficina": "5de02097332c106d58ecd391",
        "perfil": "5de020ae332c106d58ecd3a8",
        "registro": "P027140",
        "__v": 0,
        "territorio": "5de0209e332c106d58ecd39b"
      },
      "usuarioCreador": {
        "_id": "5dd5cfcb6456d81a40b47d6b",
        "userName": "asanchez",
        "password": "$2b$12$APysEKT3MEB2l4V/O0facOR/VZJZ2UX/67W/Y6wy2q.iqmb2B4wES",
        "nombreCompleto": "Arturo Sanchez",
        "oficina": "5de02097332c106d58ecd391",
        "perfil": "5de020ae332c106d58ecd3a8",
        "registro": "P027140",
        "__v": 0,
        "territorio": "5de0209e332c106d58ecd39b"
      },
      "codigo": "39",
      "creacion": "2019-12-02T02:47:01.734Z",
      "__v": 1
    },
    {
      "details": [
        {
          "_id": "5de469d01046204b08874839",
          "tarjeta": {
            "_id": "5ddeac413e3ae2457ec282aa",
            "bin": "4147-91",
            "codigo": "SS",
            "descripcion": "VISA SIGNATURE",
            "value": "SS-VISA SIGNATURE",
            "formato": "ESTANDAR",
            "imagen": "https://bbva.pe/content/dam/public-web/peru/local-tools/images/productos/tarjetas/visa-signature.png",
            "rango": "50",
            "__v": 0
          },
          "cantidad": 200,
          "solicitud": "5de469d01046204b08874838",
          "__v": 0
        },
        {
          "_id": "5de469d01046204b0887483a",
          "tarjeta": {
            "_id": "5ddeac433e3ae2457ec282ad",
            "bin": "4140-68",
            "codigo": "S13",
            "descripcion": "LIFEMILES PLATINUM",
            "value": "S13-LIFEMILES PLATINUM",
            "formato": "ESTANDAR",
            "imagen": "https://bbva.pe/content/dam/public-web/peru/local-tools/images/productos/tarjetas/visa-lifemiles-platinum.png",
            "rango": "50",
            "__v": 0
          },
          "cantidad": 300,
          "solicitud": "5de469d01046204b08874838",
          "__v": 0
        }
      ],
      "_id": "5de469d01046204b08874838",
      "estado": {
        "_id": "5de01fd8332c106d58ecd25d",
        "codigo": "SOLICITADO",
        "nombre": "Solicitado",
        "valor": "Solicitado",
        "lista": "5de01fc9332c106d58ecd255",
        "__v": 0
      },
      "oficina": {
        "_id": "5de02017332c106d58ecd2c3",
        "codigo": "0876",
        "nombre": "OF. JAVIER PRADO OESTE",
        "valor": "0876",
        "lista": "5de01fca332c106d58ecd256",
        "__v": 0
      },
      "territorio": {
        "_id": "5de0209e332c106d58ecd39b",
        "codigo": "0734",
        "nombre": "GT LIMA RESIDENCIAL",
        "valor": "0734",
        "lista": "5de01fcb332c106d58ecd257",
        "__v": 0
      },
      "usuarioAsignado": {
        "_id": "5dd5cfcb6456d81a40b47d6b",
        "userName": "asanchez",
        "password": "$2b$12$APysEKT3MEB2l4V/O0facOR/VZJZ2UX/67W/Y6wy2q.iqmb2B4wES",
        "nombreCompleto": "Arturo Sanchez",
        "oficina": "5de02097332c106d58ecd391",
        "perfil": "5de020ae332c106d58ecd3a8",
        "registro": "P027140",
        "__v": 0,
        "territorio": "5de0209e332c106d58ecd39b"
      },
      "usuarioCreador": {
        "_id": "5dd5cfcb6456d81a40b47d6b",
        "userName": "asanchez",
        "password": "$2b$12$APysEKT3MEB2l4V/O0facOR/VZJZ2UX/67W/Y6wy2q.iqmb2B4wES",
        "nombreCompleto": "Arturo Sanchez",
        "oficina": "5de02097332c106d58ecd391",
        "perfil": "5de020ae332c106d58ecd3a8",
        "registro": "P027140",
        "__v": 0,
        "territorio": "5de0209e332c106d58ecd39b"
      },
      "codigo": "38",
      "creacion": "2019-12-02T01:33:04.213Z",
      "__v": 1
    },
    {
      "details": [
        {
          "_id": "5de40087c583935b28e96e66",
          "tarjeta": {
            "_id": "5ddeac453e3ae2457ec282b1",
            "bin": "4919-09",
            "codigo": "SI",
            "descripcion": "VISA BFREE",
            "value": "SI-VISA BFREE",
            "formato": "ESTANDAR",
            "imagen": "https://bbva.pe/content/dam/public-web/peru/local-tools/images/productos/tarjetas/visa-signature.png",
            "rango": "50",
            "__v": 0
          },
          "cantidad": 100,
          "solicitud": "5de40087c583935b28e96e65",
          "__v": 0
        },
        {
          "_id": "5de40087c583935b28e96e67",
          "tarjeta": {
            "_id": "5ddeac453e3ae2457ec282b2",
            "bin": "5124-09",
            "codigo": "SQ",
            "descripcion": "MC BFREE",
            "value": "SQ-MC BFREE",
            "formato": "ESTANDAR",
            "imagen": "https://www.bbva.pe/content/dam/public-web/peru/images/credit-cards/credito-bfree-mastercard.png",
            "rango": "50",
            "__v": 0
          },
          "cantidad": 800,
          "solicitud": "5de40087c583935b28e96e65",
          "__v": 0
        }
      ],
      "_id": "5de40087c583935b28e96e65",
      "estado": {
        "_id": "5de01fd8332c106d58ecd25d",
        "codigo": "SOLICITADO",
        "nombre": "Solicitado",
        "valor": "Solicitado",
        "lista": "5de01fc9332c106d58ecd255",
        "__v": 0
      },
      "oficina": {
        "_id": "5de02097332c106d58ecd391",
        "codigo": "0333",
        "nombre": "OF. MIRAFLORES",
        "valor": "0333",
        "lista": "5de01fca332c106d58ecd256",
        "__v": 0
      },
      "territorio": {
        "_id": "5de0209e332c106d58ecd39b",
        "codigo": "0734",
        "nombre": "GT LIMA RESIDENCIAL",
        "valor": "0734",
        "lista": "5de01fcb332c106d58ecd257",
        "__v": 0
      },
      "usuarioAsignado": {
        "_id": "5dd5cfcb6456d81a40b47d6b",
        "userName": "asanchez",
        "password": "$2b$12$APysEKT3MEB2l4V/O0facOR/VZJZ2UX/67W/Y6wy2q.iqmb2B4wES",
        "nombreCompleto": "Arturo Sanchez",
        "oficina": "5de02097332c106d58ecd391",
        "perfil": "5de020ae332c106d58ecd3a8",
        "registro": "P027140",
        "__v": 0,
        "territorio": "5de0209e332c106d58ecd39b"
      },
      "usuarioCreador": {
        "_id": "5dd5cfcb6456d81a40b47d6b",
        "userName": "asanchez",
        "password": "$2b$12$APysEKT3MEB2l4V/O0facOR/VZJZ2UX/67W/Y6wy2q.iqmb2B4wES",
        "nombreCompleto": "Arturo Sanchez",
        "oficina": "5de02097332c106d58ecd391",
        "perfil": "5de020ae332c106d58ecd3a8",
        "registro": "P027140",
        "__v": 0,
        "territorio": "5de0209e332c106d58ecd39b"
      },
      "codigo": "37",
      "creacion": "2019-12-01T18:03:51.601Z",
      "__v": 1
    },
    {
      "details": [
        {
          "_id": "5de450acc583935b28e96e6b",
          "tarjeta": {
            "_id": "5ddeac413e3ae2457ec282a9",
            "bin": "5536-50",
            "codigo": "SB",
            "descripcion": "MC BLACK",
            "value": "SB-MC BLACK",
            "formato": "ESTANDAR",
            "imagen": "https://bbva.pe/content/dam/public-web/peru/local-tools/images/productos/tarjetas/mastercard-black.png",
            "rango": "50",
            "__v": 0
          },
          "cantidad": 100,
          "solicitud": "5de40065c583935b28e96e63",
          "__v": 0
        },
        {
          "_id": "5de450acc583935b28e96e6c",
          "tarjeta": {
            "_id": "5ddeac413e3ae2457ec282aa",
            "bin": "4147-91",
            "codigo": "SS",
            "descripcion": "VISA SIGNATURE",
            "value": "SS-VISA SIGNATURE",
            "formato": "ESTANDAR",
            "imagen": "https://bbva.pe/content/dam/public-web/peru/local-tools/images/productos/tarjetas/visa-signature.png",
            "rango": "50",
            "__v": 0
          },
          "cantidad": 200,
          "solicitud": "5de40065c583935b28e96e63",
          "__v": 0
        },
        {
          "_id": "5de450adc583935b28e96e6d",
          "tarjeta": {
            "_id": "5ddeac453e3ae2457ec282b2",
            "bin": "5124-09",
            "codigo": "SQ",
            "descripcion": "MC BFREE",
            "value": "SQ-MC BFREE",
            "formato": "ESTANDAR",
            "imagen": "https://www.bbva.pe/content/dam/public-web/peru/images/credit-cards/credito-bfree-mastercard.png",
            "rango": "50",
            "__v": 0
          },
          "cantidad": 150,
          "solicitud": "5de40065c583935b28e96e63",
          "__v": 0
        },
        {
          "_id": "5de450adc583935b28e96e6e",
          "tarjeta": {
            "_id": "5ddeac573e3ae2457ec282c5",
            "bin": "4381-68",
            "codigo": "SV",
            "descripcion": "VIP",
            "value": "SV-VIP",
            "formato": "ESTANDAR",
            "imagen": "",
            "rango": "50",
            "__v": 0
          },
          "cantidad": 50,
          "solicitud": "5de40065c583935b28e96e63",
          "__v": 0
        },
        {
          "_id": "5de450adc583935b28e96e6f",
          "tarjeta": {
            "_id": "5ddeac4b3e3ae2457ec282b9",
            "bin": "5124-09",
            "codigo": "SY",
            "descripcion": "MC ORO",
            "value": "SY-MC ORO",
            "formato": "ESTANDAR",
            "imagen": "",
            "rango": "50",
            "__v": 0
          },
          "cantidad": 50,
          "solicitud": "5de40065c583935b28e96e63",
          "__v": 0
        }
      ],
      "_id": "5de40065c583935b28e96e63",
      "estado": {
        "_id": "5de01fd8332c106d58ecd25d",
        "codigo": "SOLICITADO",
        "nombre": "Solicitado",
        "valor": "Solicitado",
        "lista": "5de01fc9332c106d58ecd255",
        "__v": 0
      },
      "oficina": {
        "_id": "5de02097332c106d58ecd391",
        "codigo": "0333",
        "nombre": "OF. MIRAFLORES",
        "valor": "0333",
        "lista": "5de01fca332c106d58ecd256",
        "__v": 0
      },
      "territorio": {
        "_id": "5de0209e332c106d58ecd39b",
        "codigo": "0734",
        "nombre": "GT LIMA RESIDENCIAL",
        "valor": "0734",
        "lista": "5de01fcb332c106d58ecd257",
        "__v": 0
      },
      "usuarioAsignado": {
        "_id": "5dd5cfcb6456d81a40b47d6b",
        "userName": "asanchez",
        "password": "$2b$12$APysEKT3MEB2l4V/O0facOR/VZJZ2UX/67W/Y6wy2q.iqmb2B4wES",
        "nombreCompleto": "Arturo Sanchez",
        "oficina": "5de02097332c106d58ecd391",
        "perfil": "5de020ae332c106d58ecd3a8",
        "registro": "P027140",
        "__v": 0,
        "territorio": "5de0209e332c106d58ecd39b"
      },
      "usuarioCreador": {
        "_id": "5dd5cfcb6456d81a40b47d6b",
        "userName": "asanchez",
        "password": "$2b$12$APysEKT3MEB2l4V/O0facOR/VZJZ2UX/67W/Y6wy2q.iqmb2B4wES",
        "nombreCompleto": "Arturo Sanchez",
        "oficina": "5de02097332c106d58ecd391",
        "perfil": "5de020ae332c106d58ecd3a8",
        "registro": "P027140",
        "__v": 0,
        "territorio": "5de0209e332c106d58ecd39b"
      },
      "codigo": "36",
      "creacion": "2019-12-01T18:03:17.638Z",
      "__v": 3,
      "ultimaModificacion": "2019-12-01T23:45:48.842Z"
    },
    {
      "details": [
        {
          "_id": "5de353ccad58ae5ad0e69c2b",
          "tarjeta": {
            "_id": "5ddeac413e3ae2457ec282aa",
            "bin": "4147-91",
            "codigo": "SS",
            "descripcion": "VISA SIGNATURE",
            "value": "SS-VISA SIGNATURE",
            "formato": "ESTANDAR",
            "imagen": "https://bbva.pe/content/dam/public-web/peru/local-tools/images/productos/tarjetas/visa-signature.png",
            "rango": "50",
            "__v": 0
          },
          "cantidad": 200,
          "solicitud": "5de33ac67d9c2d57221c5634",
          "__v": 0
        },
        {
          "_id": "5de353ccad58ae5ad0e69c2c",
          "tarjeta": {
            "_id": "5ddeac433e3ae2457ec282ad",
            "bin": "4140-68",
            "codigo": "S13",
            "descripcion": "LIFEMILES PLATINUM",
            "value": "S13-LIFEMILES PLATINUM",
            "formato": "ESTANDAR",
            "imagen": "https://bbva.pe/content/dam/public-web/peru/local-tools/images/productos/tarjetas/visa-lifemiles-platinum.png",
            "rango": "50",
            "__v": 0
          },
          "cantidad": 300,
          "solicitud": "5de33ac67d9c2d57221c5634",
          "__v": 0
        }
      ],
      "_id": "5de33ac67d9c2d57221c5634",
      "estado": {
        "_id": "5de01fd8332c106d58ecd25d",
        "codigo": "SOLICITADO",
        "nombre": "Solicitado",
        "valor": "Solicitado",
        "lista": "5de01fc9332c106d58ecd255",
        "__v": 0
      },
      "oficina": {
        "_id": "5de02097332c106d58ecd391",
        "codigo": "0333",
        "nombre": "OF. MIRAFLORES",
        "valor": "0333",
        "lista": "5de01fca332c106d58ecd256",
        "__v": 0
      },
      "territorio": {
        "_id": "5de0209e332c106d58ecd39b",
        "codigo": "0734",
        "nombre": "GT LIMA RESIDENCIAL",
        "valor": "0734",
        "lista": "5de01fcb332c106d58ecd257",
        "__v": 0
      },
      "usuarioAsignado": {
        "_id": "5dd5cfcb6456d81a40b47d6b",
        "userName": "asanchez",
        "password": "$2b$12$APysEKT3MEB2l4V/O0facOR/VZJZ2UX/67W/Y6wy2q.iqmb2B4wES",
        "nombreCompleto": "Arturo Sanchez",
        "oficina": "5de02097332c106d58ecd391",
        "perfil": "5de020ae332c106d58ecd3a8",
        "registro": "P027140",
        "__v": 0,
        "territorio": "5de0209e332c106d58ecd39b"
      },
      "usuarioCreador": {
        "_id": "5dd5cfcb6456d81a40b47d6b",
        "userName": "asanchez",
        "password": "$2b$12$APysEKT3MEB2l4V/O0facOR/VZJZ2UX/67W/Y6wy2q.iqmb2B4wES",
        "nombreCompleto": "Arturo Sanchez",
        "oficina": "5de02097332c106d58ecd391",
        "perfil": "5de020ae332c106d58ecd3a8",
        "registro": "P027140",
        "__v": 0,
        "territorio": "5de0209e332c106d58ecd39b"
      },
      "codigo": "35",
      "creacion": "2019-12-01T04:00:06.761Z",
      "__v": 3,
      "ultimaModificacion": "2019-12-01T05:46:52.160Z"
    },
    {
      "details": [
        {
          "_id": "5de339dd7d9c2d57221c5631",
          "tarjeta": {
            "_id": "5ddeac413e3ae2457ec282a9",
            "bin": "5536-50",
            "codigo": "SB",
            "descripcion": "MC BLACK",
            "value": "SB-MC BLACK",
            "formato": "ESTANDAR",
            "imagen": "https://bbva.pe/content/dam/public-web/peru/local-tools/images/productos/tarjetas/mastercard-black.png",
            "rango": "50",
            "__v": 0
          },
          "cantidad": 500,
          "solicitud": "5de339dd7d9c2d57221c5630",
          "__v": 0
        },
        {
          "_id": "5de339dd7d9c2d57221c5632",
          "tarjeta": {
            "_id": "5ddeac453e3ae2457ec282b2",
            "bin": "5124-09",
            "codigo": "SQ",
            "descripcion": "MC BFREE",
            "value": "SQ-MC BFREE",
            "formato": "ESTANDAR",
            "imagen": "https://www.bbva.pe/content/dam/public-web/peru/images/credit-cards/credito-bfree-mastercard.png",
            "rango": "50",
            "__v": 0
          },
          "cantidad": 800,
          "solicitud": "5de339dd7d9c2d57221c5630",
          "__v": 0
        },
        {
          "_id": "5de339dd7d9c2d57221c5633",
          "tarjeta": {
            "_id": "5ddeac413e3ae2457ec282aa",
            "bin": "4147-91",
            "codigo": "SS",
            "descripcion": "VISA SIGNATURE",
            "value": "SS-VISA SIGNATURE",
            "formato": "ESTANDAR",
            "imagen": "https://bbva.pe/content/dam/public-web/peru/local-tools/images/productos/tarjetas/visa-signature.png",
            "rango": "50",
            "__v": 0
          },
          "cantidad": 750,
          "solicitud": "5de339dd7d9c2d57221c5630",
          "__v": 0
        }
      ],
      "_id": "5de339dd7d9c2d57221c5630",
      "estado": {
        "_id": "5de01fd8332c106d58ecd25d",
        "codigo": "SOLICITADO",
        "nombre": "Solicitado",
        "valor": "Solicitado",
        "lista": "5de01fc9332c106d58ecd255",
        "__v": 0
      },
      "oficina": {
        "_id": "5de02097332c106d58ecd391",
        "codigo": "0333",
        "nombre": "OF. MIRAFLORES",
        "valor": "0333",
        "lista": "5de01fca332c106d58ecd256",
        "__v": 0
      },
      "territorio": {
        "_id": "5de0209e332c106d58ecd39b",
        "codigo": "0734",
        "nombre": "GT LIMA RESIDENCIAL",
        "valor": "0734",
        "lista": "5de01fcb332c106d58ecd257",
        "__v": 0
      },
      "usuarioAsignado": {
        "_id": "5dd5cfcb6456d81a40b47d6b",
        "userName": "asanchez",
        "password": "$2b$12$APysEKT3MEB2l4V/O0facOR/VZJZ2UX/67W/Y6wy2q.iqmb2B4wES",
        "nombreCompleto": "Arturo Sanchez",
        "oficina": "5de02097332c106d58ecd391",
        "perfil": "5de020ae332c106d58ecd3a8",
        "registro": "P027140",
        "__v": 0,
        "territorio": "5de0209e332c106d58ecd39b"
      },
      "usuarioCreador": {
        "_id": "5dd5cfcb6456d81a40b47d6b",
        "userName": "asanchez",
        "password": "$2b$12$APysEKT3MEB2l4V/O0facOR/VZJZ2UX/67W/Y6wy2q.iqmb2B4wES",
        "nombreCompleto": "Arturo Sanchez",
        "oficina": "5de02097332c106d58ecd391",
        "perfil": "5de020ae332c106d58ecd3a8",
        "registro": "P027140",
        "__v": 0,
        "territorio": "5de0209e332c106d58ecd39b"
      },
      "codigo": "34",
      "creacion": "2019-12-01T03:56:13.456Z",
      "__v": 1
    },
    {
      "details": [
        {
          "_id": "5de3c966c583935b28e96e61",
          "tarjeta": {
            "_id": "5ddeac413e3ae2457ec282aa",
            "bin": "4147-91",
            "codigo": "SS",
            "descripcion": "VISA SIGNATURE",
            "value": "SS-VISA SIGNATURE",
            "formato": "ESTANDAR",
            "imagen": "https://bbva.pe/content/dam/public-web/peru/local-tools/images/productos/tarjetas/visa-signature.png",
            "rango": "50",
            "__v": 0
          },
          "cantidad": 100,
          "solicitud": "5de32c2f45c1c025281233fc",
          "__v": 0
        },
        {
          "_id": "5de3c966c583935b28e96e62",
          "tarjeta": {
            "_id": "5ddeac433e3ae2457ec282ad",
            "bin": "4140-68",
            "codigo": "S13",
            "descripcion": "LIFEMILES PLATINUM",
            "value": "S13-LIFEMILES PLATINUM",
            "formato": "ESTANDAR",
            "imagen": "https://bbva.pe/content/dam/public-web/peru/local-tools/images/productos/tarjetas/visa-lifemiles-platinum.png",
            "rango": "50",
            "__v": 0
          },
          "cantidad": 150,
          "solicitud": "5de32c2f45c1c025281233fc",
          "__v": 0
        }
      ],
      "_id": "5de32c2f45c1c025281233fc",
      "estado": {
        "_id": "5de0210195651359c8f98fe4",
        "codigo": "ANULADO",
        "nombre": "anulado",
        "valor": "anulado",
        "lista": "5de01fc9332c106d58ecd255",
        "__v": 0
      },
      "oficina": {
        "_id": "5de02017332c106d58ecd2c3",
        "codigo": "0876",
        "nombre": "OF. JAVIER PRADO OESTE",
        "valor": "0876",
        "lista": "5de01fca332c106d58ecd256",
        "__v": 0
      },
      "territorio": {
        "_id": "5de0209e332c106d58ecd39b",
        "codigo": "0734",
        "nombre": "GT LIMA RESIDENCIAL",
        "valor": "0734",
        "lista": "5de01fcb332c106d58ecd257",
        "__v": 0
      },
      "usuarioAsignado": {
        "_id": "5dd5cfcb6456d81a40b47d6b",
        "userName": "asanchez",
        "password": "$2b$12$APysEKT3MEB2l4V/O0facOR/VZJZ2UX/67W/Y6wy2q.iqmb2B4wES",
        "nombreCompleto": "Arturo Sanchez",
        "oficina": "5de02097332c106d58ecd391",
        "perfil": "5de020ae332c106d58ecd3a8",
        "registro": "P027140",
        "__v": 0,
        "territorio": "5de0209e332c106d58ecd39b"
      },
      "usuarioCreador": {
        "_id": "5dd5cfcb6456d81a40b47d6b",
        "userName": "asanchez",
        "password": "$2b$12$APysEKT3MEB2l4V/O0facOR/VZJZ2UX/67W/Y6wy2q.iqmb2B4wES",
        "nombreCompleto": "Arturo Sanchez",
        "oficina": "5de02097332c106d58ecd391",
        "perfil": "5de020ae332c106d58ecd3a8",
        "registro": "P027140",
        "__v": 0,
        "territorio": "5de0209e332c106d58ecd39b"
      },
      "codigo": "33",
      "creacion": "2019-12-01T02:57:51.675Z",
      "__v": 2,
      "ultimaModificacion": "2019-12-01T14:08:38.804Z"
    }
  ]